Superlatively Fast Fuzzy Joins • zoomerjoin
…
Example: Joining rows of the Database on Ideology, Money in Politics, and Elections

(DIME)

Here’s a snippet showing off how to use the jaccard_inner_join() merge two lists of political donors in the Database on Ideology, Money in Politics, and Elections (DIME). You can see a more detailed example of this vignette in the introductory vignette.

I start with two corpuses I would like to combine, corpus_1:

corpus_1 <- dime_data %>%
  head(500)
names(corpus_1) <- c("a", "field")
corpus_1

## # A tibble: 500 × 2
##        a field                                                                  
##    <dbl> <chr>                                                                  
##  1     1 ufwa cope committee                                                    
##  2     2 committee to re elect charles e. bennett                               
##  3     3 montana democratic party non federal account                           
##  4     4 mississippi power & light company management political action and educ…
##  5     5 napus pac for postmasters                                              
##  6     6 aminoil good government fund                                           
##  7     7 national women's political caucus of california                        
##  8     8 minnesota gun owners' political victory fund                           
##  9     9 metropolitan detroit afl cio cope committee                            
## 10    10 carpenters legislative improvement committee united brotherhood of car…
## # ℹ 490 more rows

And corpus_2:

corpus_2 <- dime_data %>%
  tail(500)
names(corpus_2) <- c("b", "field")
corpus_2

## # A tibble: 500 × 2
##        b field                                                                  
##    <dbl> <chr>                                                                  
##  1   501 citizens for derwinski                                                 
##  2   502 progressive victory fund greater washington americans for democratic a…
##  3   503 ingham county democratic party federal campaign fund                   
##  4   504 committee for a stronger future                                        
##  5   505 atoka country supper committee                                         
##  6   506 friends of democracy pac inc                                           
##  7   507 baypac                                                                 
##  8   508 international brotherhood of electrical workers local union 278 cope/p…
##  9   509 louisville & jefferson county republican executive committee           
## 10   510 democratic party of virginia                                           
## # ℹ 490 more rows
…
