…
lsh_inner_join()

lsh_full_join()

lsh_anti_join()

Here’s a snippet showing off how to use the
lhs_left_join() command:

I start with two corpses I would like to combine,
corpus_1:

corpus_1

## # A tibble: 500,000 × 2
##        a field                                                                  
##    <dbl> <chr>                                                                  
##  1     1 ufwa cope committee                                                    
##  2     2 committee to re elect charles e. bennett                               
##  3     3 montana democratic party non federal account                           
##  4     4 mississippi power & light company management political action and educ…
##  5     5 napus pac for postmasters                                              
##  6     6 aminoil good government fund                                           
##  7     7 national women's political caucus of california                        
##  8     8 minnesota gun owners' political victory fund                           
##  9     9 metropolitan detroit afl cio cope committee                            
## 10    10 carpenters legislative improvement committee united brotherhood of car…
## # … with 499,990 more rows

And corpus_2:

corpus_2

## # A tibble: 500,000 × 2
##         b field                               
##     <dbl> <chr>                               
##  1 832471 avrp studios inc                    
##  2 832472 avrd design                         
##  3 832473 avenales cattle co                  
##  4 832474 auto dealers of michigan political a
##  5 832475 atty & counselor at law             
##  6 832476 at&t united way                     
##  7 832477 ashland food & liquors              
##  8 832478 arvance turkey ranch inc            
##  9 832479 arizona federation of teachers      
## 10 832480 arianas restaurant                  
## # … with 499,990 more rows
…
start_time <- Sys.time()
join_out <- lsh_inner_join(corpus_1, corpus_2, n_gram_width=6, n_bands=20, band_width=6)

## Joining by 'field'

print(Sys.time() - start_time)

## Time difference of 9.633906 secs

print(join_out)

## # A tibble: 176,367 × 4
##         a field.x                                                      b field.y
##     <dbl> <chr>                                                    <dbl> <chr>  
##  1 286800 buffalo teachers federation inc                         1.07e6 buffal…
##  2  20694 calaveras county democratic central cmte                1.16e6 ch cou…
##  3 375638 drc development llc                                     1.08e6 dc dev…
##  4 106547 or league of conservation voters                        8.91e5 texas …
##  5  55079 houston fire fighters pac,                              8.35e5 housto…
##  6 239797 dhp holdings llc                                        1.17e6 wp hol…
##  7  98767 united health alliance                                  1.06e6 united…
##  8  55756 the hartford advocates fund multi candidate committee   8.80e5 hartfo…
##  9 430560 thompson leasing co                                     8.90e5 thomps…
## 10  74095 international brotherhood of electrical workers local … 9.60e5 intern…
## # … with 176,357 more rows
…
