…
- `lsh_left_join()`
- `lsh_right_join()`
- `lsh_inner_join()`
- `lsh_full_join()`
- `lsh_anti_join()`

Here’s a snippet showing off how to use the `lhs_left_join()` command:

``` r
corpus_1
```

    ## # A tibble: 500,000 × 2
    ##        a field                                                                  
    ##    <dbl> <chr>                                                                  
    ##  1     1 ufwa cope committee                                                    
    ##  2     2 committee to re elect charles e. bennett                               
    ##  3     3 montana democratic party non federal account                           
    ##  4     4 mississippi power & light company management political action and educ…
    ##  5     5 napus pac for postmasters                                              
    ##  6     6 aminoil good government fund                                           
    ##  7     7 national women's political caucus of california                        
    ##  8     8 minnesota gun owners' political victory fund                           
    ##  9     9 metropolitan detroit afl cio cope committee                            
    ## 10    10 carpenters legislative improvement committee united brotherhood of car…
    ## # … with 499,990 more rows

``` r
corpus_2
```

    ## # A tibble: 500,000 × 2
    ##         b field                               
    ##     <dbl> <chr>                               
    ##  1 832471 avrp studios inc                    
    ##  2 832472 avrd design                         
    ##  3 832473 avenales cattle co                  
    ##  4 832474 auto dealers of michigan political a
    ##  5 832475 atty & counselor at law             
    ##  6 832476 at&t united way                     
    ##  7 832477 ashland food & liquors              
    ##  8 832478 arvance turkey ranch inc            
    ##  9 832479 arizona federation of teachers      
    ## 10 832480 arianas restaurant                  
    ## # … with 499,990 more rows
…
    ## Joining by 'field'

``` r
print(Sys.time() - start_time)
```

    ## Time difference of 35.34208 secs

``` r
print(join_out)
```

    ## # A tibble: 2,330 × 4
    ##         a field.x                                                      b field.y
    ##     <dbl> <chr>                                                    <dbl> <chr>  
    ##  1    203 union oil political awareness fund                      8.89e5 union …
    ##  2  56499 morongo band of mission indians native amer rights fun… 8.74e5 morong…
    ##  3 170781 queens village republican club inc                      1.10e6 queens…
    ##  4 142705 judge reece rondon campaign                             9.20e5 judge …
    ##  5  51346 texas and southwestern cattle raisers association       8.92e5 texas …
    ##  6 446752 stith family partnership ltd                            9.35e5 stith …
    ##  7 112990 bentwood republican womens club                         9.79e5 bentwo…
    ##  8  54010 faculty for our university s future local committee     8.82e5 facult…
    ##  9  52697 law office of daniel j o neill                          9.54e5 law of…
    ## 10   4325 21st senate district democratic farmer labor party      1.00e6 61st s…
    ## # … with 2,320 more rows
…
