…
  hamming_left_join(
    baby_names,
    baby_names_mispelled,
    by = c("name" = "name_mispelled"),
    threshold = 3,
    n_bands = 150,
    band_width = 10
  )
}
#> # A tibble: 2,746 × 2
#>    name    name_mispelled
#>    <chr>   <chr>         
#>  1 liza    lxtx          
#>  2 velma   vxlmx         
#>  3 fay     xlx           
#>  4 margret mxrgrxt       
#>  5 ruth    xttx          
#>  6 ada     lxx           
#>  7 lena    txnx          
#>  8 ada     nxn           
#>  9 zoe     xvx           
#> 10 ida     lxx           
#> # ℹ 2,736 more rows
```
