Fuzzy joins for Jaccard distance using MinHash — jaccard_inner_join • zoomerjoin
…
  # Run the join and keep all rows from the first dataset, regardless of whether
  # they have a match:
  jaccard_left_join(
    baby_names,
    baby_names_sans_vowels,
    by = c("name" = "name_wo_vowels"),
    threshold = .8,
    n_bands = 20,
    band_width = 6,
    n_gram_width = 1
  )
}
#> # A tibble: 506 × 2
#>    name   name_wo_vowels
#>    <chr>  <chr>         
#>  1 frank  frnk          
#>  2 hester hstr          
#>  3 esther sthr          
#>  4 blanch blnch         
#>  5 esther hstr          
#>  6 hester sthr          
#>  7 blanch blnch         
#>  8 frank  frnk          
#>  9 hester thrs          
#> 10 martha mrth          
#> # ℹ 496 more rows
…
