A Zoomerjoin Guided Tour • zoomerjoin
…
If you’re familiar with the logical-join syntax from
dplyr, then you already know how to use fuzzy join to join
two datasets. Zoomerjoin provides lsh_inner_join and
lsh_full_join (among others), which are the fuzzy-joining
analogues of the corresponding dplyr functions.

I demonstrate the syntax by using the package to join to corpuses,
which formed from entries from the Database on Ideology, Money in
Politics, and Elections (DIME) (Bonica 2016).

The first corpus looks as follows:

corpus_1

## # A tibble: 500,000 × 2
##        a field                                                                  
##    <dbl> <chr>                                                                  
##  1     1 ufwa cope committee                                                    
##  2     2 committee to re elect charles e. bennett                               
##  3     3 montana democratic party non federal account                           
##  4     4 mississippi power & light company management political action and educ…
##  5     5 napus pac for postmasters                                              
##  6     6 aminoil good government fund                                           
##  7     7 national women's political caucus of california                        
##  8     8 minnesota gun owners' political victory fund                           
##  9     9 metropolitan detroit afl cio cope committee                            
## 10    10 carpenters legislative improvement committee united brotherhood of car…
## # … with 499,990 more rows

And the second looks as follows:

corpus_2

## # A tibble: 500,000 × 2
##         b field                               
##     <dbl> <chr>                               
##  1 832471 avrp studios inc                    
##  2 832472 avrd design                         
##  3 832473 avenales cattle co                  
##  4 832474 auto dealers of michigan political a
##  5 832475 atty & counselor at law             
##  6 832476 at&t united way                     
##  7 832477 ashland food & liquors              
##  8 832478 arvance turkey ranch inc            
##  9 832479 arizona federation of teachers      
## 10 832480 arianas restaurant                  
## # … with 499,990 more rows
The two Corpuses can’t be directly joined because of misspellings.
This means we must use the fuzzy-matching capabilities of
zoomerjoin:

start_time <- Sys.time()
join_out <- lsh_inner_join(corpus_1, corpus_2,
                           by = "field", n_gram_width=6,
                           n_bands=20, band_width=6, threshold = .8)
print(Sys.time() - start_time)

## Time difference of 33.23309 secs

print(join_out)

## # A tibble: 48,064 × 4
##         a field.x                                               b field.y       
##     <dbl> <chr>                                             <dbl> <chr>         
##  1 138716 national association of air traffic specialists 1247704 national asso…
##  2  51828 union pacific railroad co                       1015920 union pacific…
##  3  32374 nathan mintz for assembly 2012                   945943 nathan mintz …
##  4 122500 sheet metal workers local 36                    1206719 sheet metal w…
##  5 337701 first florida insurers of tampa                 1005909 1st florida i…
##  6 388502 poland spring                                    866378 poland springs
##  7 104670 plumbers & pipefitters local 506                1097224 plumbers & pi…
##  8  85974 3rd senate district democrat-farmer-labor       1004498 5543 senate d…
##  9 107061 ne transportation                               1216609 roane transpo…
## 10 386198 sheet metal workers inter                       1206728 sheet metal w…
## # … with 48,054 more rows
…
